<?xml version="1.0" encoding="UTF-8" standalone="no"?>
<svg
   xmlns:dc="http://purl.org/dc/elements/1.1/"
   xmlns:cc="http://creativecommons.org/ns#"
   xmlns:rdf="http://www.w3.org/1999/02/22-rdf-syntax-ns#"
   xmlns:svg="http://www.w3.org/2000/svg"
   xmlns="http://www.w3.org/2000/svg"
   id="svg8"
   version="1.1"
   viewBox="0 0 105.83333 105.83333"
   height="400"
   width="400">
  <defs
     id="defs2" />
  <metadata
     id="metadata5">
    <rdf:RDF>
      <cc:Work
         rdf:about="">
        <dc:format>image/svg+xml</dc:format>
        <dc:type
           rdf:resource="http://purl.org/dc/dcmitype/StillImage" />
        <dc:title></dc:title>
      </cc:Work>
    </rdf:RDF>
  </metadata>
  <g
     transform="translate(-68.449186,-38.770424)"
     id="layer1">
    <path
       id="path873"
       d="m 118.65922,121.81872 c -6.18462,-0.55984 -11.72191,-2.90608 -17.13462,-7.26021 -3.257014,-2.62004 -2.645203,-2.69752 -6.070939,0.76889 -1.645517,1.66505 -3.374281,3.22092 -3.841714,3.4575 -0.756434,0.38284 -0.927449,0.38735 -1.555443,0.041 -1.459153,-0.80478 -1.407304,-0.38356 -1.488462,-12.09319 -0.04988,-7.195642 0.01519,-11.151332 0.195168,-11.864162 0.490553,-1.943047 0.449225,-1.935956 12.11017,-2.078339 l 10.24598,-0.125105 0.75605,0.763698 c 0.97811,0.987996 1.25605,1.768966 0.94257,2.648386 -0.13607,0.38173 -1.64033,2.21987 -3.3428,4.084742 -1.91824,2.10126 -3.09537,3.59666 -3.09537,3.93228 0,1.34496 5.91647,5.01718 9.92276,6.15884 2.92291,0.83293 8.60656,0.83425 11.46042,0.003 7.07147,-2.06056 12.56194,-7.17507 15.50297,-14.441412 0.51942,-1.2833 1.12154,-2.434885 1.33807,-2.559073 0.57178,-0.327958 7.0794,-0.579209 8.53681,-0.329596 l 1.24034,0.212436 0.0753,1.099983 c 0.20566,3.00632 -3.69577,11.221252 -7.67425,16.159082 -6.66058,8.26668 -16.92477,12.43529 -28.12296,11.42161 z"
       style="fill:#c3ff85;fill-opacity:1;stroke:none;stroke-width:0.0197281;stroke-miterlimit:4;stroke-dasharray:none;stroke-opacity:1" />
    <path
       id="path875"
       d="m 91.20372,87.277199 c -0.365217,-0.07017 -0.80275,-0.305858 -0.972303,-0.52375 -0.859765,-1.104914 2.334622,-9.194295 5.518921,-13.975964 5.056552,-7.593123 12.458782,-12.584782 20.800302,-14.026576 3.11788,-0.538911 9.14164,-0.533926 12.17369,0.01008 4.98495,0.894379 9.94656,3.247893 14.33513,6.799792 1.41358,1.144082 2.71537,2.139587 2.89286,2.212234 0.1806,0.07391 1.66392,-1.23126 3.3682,-2.963662 3.32944,-3.384404 4.12198,-3.912967 5.24251,-3.496347 1.56567,0.582131 1.55464,0.491509 1.55464,12.771152 0,10.159905 -0.0381,11.197698 -0.43412,11.842432 -0.83746,1.363213 -0.84111,1.363666 -11.86205,1.472626 l -10.31161,0.101947 -0.91351,-0.918911 c -0.95142,-0.957033 -1.11892,-1.667595 -0.62698,-2.659759 0.15761,-0.317854 1.66463,-2.106131 3.34894,-3.973949 1.68432,-1.867815 3.06239,-3.55033 3.06239,-3.738917 0,-1.067316 -4.34638,-4.160141 -7.62383,-5.425006 -8.8081,-3.399313 -18.25725,-1.104352 -24.65638,5.98841 -2.01701,2.235642 -3.23645,4.216474 -4.64941,7.552423 -0.59599,1.407115 -1.26578,2.633197 -1.488413,2.724626 -0.508348,0.208762 -7.862093,0.399452 -8.758977,0.227126 z"
       style="fill:#c3ff85;fill-opacity:1;stroke:none;stroke-width:0.0197281;stroke-miterlimit:4;stroke-dasharray:none;stroke-opacity:1" />
    <path
       id="path877"
       d="m 121.67323,102.59099 c -0.0639,-0.11025 -0.19379,-0.64179 -0.28866,-1.18119 -0.21862,-1.24292 -0.3275,-1.3314 -2.85905,-2.323333 -2.7194,-1.06553 -3.00838,-1.35644 -2.22774,-2.242697 0.71938,-0.81673 0.72848,-0.816827 2.59006,-0.0278 0.82934,0.351512 2.01815,0.719027 2.64183,0.816697 2.27811,0.35676 4.69567,-0.963128 4.69567,-2.563643 0,-1.264573 -1.02522,-2.053889 -4.27255,-3.289406 -2.27742,-0.866494 -4.45393,-2.083922 -5.16123,-2.886924 -0.72971,-0.828442 -0.92244,-2.678499 -0.39283,-3.770813 0.4954,-1.021778 1.63348,-1.965163 3.25306,-2.69653 1.47887,-0.667827 1.86024,-1.139629 1.86024,-2.301311 0,-0.698818 0.11771,-0.901944 0.59707,-1.030264 0.95411,-0.255407 1.63555,0.293431 1.63555,1.317286 0,1.088023 0.19656,1.259647 2.27587,1.987154 1.98879,0.695835 2.37719,1.090003 1.9831,2.012521 -0.33821,0.791702 -0.75364,0.811689 -2.5869,0.124455 -3.1931,-1.196994 -6.38538,-0.206621 -6.38538,1.980996 0,1.260811 0.99576,2.05463 4.34121,3.460787 3.92805,1.65104 5.0851,2.542619 5.55653,4.281654 0.50471,1.861844 -0.69506,3.698988 -3.23551,4.954348 -1.61738,0.799233 -1.94892,1.139753 -1.94892,2.001723 0,1.24723 -0.23577,1.57674 -1.12821,1.57674 -0.45488,0 -0.87932,-0.0902 -0.94321,-0.20045 z"
       style="fill:#c3ff85;fill-opacity:1;stroke:#c3ff85;stroke-width:1.66545773;stroke-miterlimit:4;stroke-dasharray:none;stroke-opacity:1" />
  </g>
</svg>
