{
  "project_info": {
    "project_number": "357198694288",
    "firebase_url": "https://mtwark-superscribe.firebaseio.com",
    "project_id": "mtwark-superscribe",
    "storage_bucket": "mtwark-superscribe.appspot.com"
  },
  "client": [
    {
      "client_info": {
        "mobilesdk_app_id": "1:357198694288:android:6544b231b11f7d00",
        "android_client_info": {
          "package_name": "com.example.superscribe"
        }
      },
      "oauth_client": [
        {
          "client_id": "357198694288-0v9k8ld6i154k8i9lo49ruelhbcl86a8.apps.googleusercontent.com",
          "client_type": 1,
          "android_info": {
            "package_name": "com.example.superscribe",
            "certificate_hash": "81cbfbb098db6775afcde1d5f290a7fad48ef928"
          }
        },
        {
          "client_id": "357198694288-7ip4ps8o8euq6gnaqahh0bg7ijuppgi0.apps.googleusercontent.com",
          "client_type": 3
        }
      ],
      "api_key": [
        {
          "current_key": "AIzaSyBT4HRYe-8kKLir_ZR8M6dSUj5fgLgV1pM"
        }
      ],
      "services": {
        "appinvite_service": {
          "other_platform_oauth_client": [
            {
              "client_id": "357198694288-7ip4ps8o8euq6gnaqahh0bg7ijuppgi0.apps.googleusercontent.com",
              "client_type": 3
            }
          ]
        }
      }
    }
  ],
  "configuration_version": "1"
}